tb/tb_pwm_core.vcd
$date
	Thu Jul 17 18:40:48 2025
$end
$version
	Icarus Verilog
$end
$timescale
	1ps
$end
$scope module tb_pwm_core $end
$var wire 1 ! pwm_out $end
$var parameter 32 " WIDTH_DUTY $end
$var parameter 32 # WIDTH_PERIOD $end
$var reg 1 $ clk $end
$var reg 16 % duty [15:0] $end
$var reg 16 & period [15:0] $end
$var reg 1 ' reset_n $end
$scope module dut $end
$var wire 1 $ clk $end
$var wire 16 ( duty [15:0] $end
$var wire 16 ) period [15:0] $end
$var wire 1 ' reset_n $end
$var wire 1 ! pwm_out $end
$var parameter 32 * WIDTH_DUTY $end
$var parameter 32 + WIDTH_PERIOD $end
$var reg 16 , counter [15:0] $end
$upscope $end
$upscope $end
$enddefinitions $end
$comment Show the parameter values. $end
$dumpall
b10000 +
b10000 *
b10000 #
b10000 "
$end
#0
$dumpvars
b0 ,
b1010 )
b100 (
0'
b1010 &
b100 %
0$
1!
$end
#5000
1$
#10000
0$
#12000
1'
#15000
b1 ,
1$
#20000
0$
#25000
b10 ,
1$
#30000
0$
#35000
b11 ,
1$
#40000
0$
#45000
0!
b100 ,
1$
#50000
0$
#55000
b101 ,
1$
#60000
0$
#65000
b110 ,
1$
#70000
0$
#75000
b111 ,
1$
#80000
0$
#85000
b1000 ,
1$
#90000
0$
#95000
b1001 ,
1$
#100000
0$
#105000
1!
b0 ,
1$
#110000
0$
#115000
b1 ,
1$
#120000
0$
#125000
b10 ,
1$
#130000
0$
#132000
b111 %
b111 (
#135000
b11 ,
1$
#140000
0$
#145000
b100 ,
1$
#150000
0$
#155000
b101 ,
1$
#160000
0$
#165000
b110 ,
1$
#170000
0$
#175000
0!
b111 ,
1$
#180000
0$
#185000
b1000 ,
1$
#190000
0$
#195000
b1001 ,
1$
#200000
0$
#205000
1!
b0 ,
1$
#210000
0$
#215000
b1 ,
1$
#220000
0$
#225000
b10 ,
1$
#230000
0$
#232000
b1000 %
b1000 (
b10000 &
b10000 )
#235000
b11 ,
1$
#240000
0$
#245000
b100 ,
1$
#250000
0$
#255000
b101 ,
1$
#260000
0$
#265000
b110 ,
1$
#270000
0$
#275000
b111 ,
1$
#280000
0$
#285000
0!
b1000 ,
1$
#290000
0$
#295000
b1001 ,
1$
#300000
0$
#305000
b1010 ,
1$
#310000
0$
#315000
b1011 ,
1$
#320000
0$
#325000
b1100 ,
1$
#330000
0$
#335000
b1101 ,
1$
#340000
0$
#345000
b1110 ,
1$
#350000
0$
#355000
b1111 ,
1$
#360000
0$
#365000
1!
b0 ,
1$
#370000
0$
#375000
b1 ,
1$
#380000
0$
#385000
b10 ,
1$
#390000
0$
#392000
0!
b0 %
b0 (
#395000
b11 ,
1$
#400000
0$
#405000
b100 ,
1$
#410000
0$
#412000
1!
b10000 %
b10000 (
#415000
b101 ,
1$
#420000
0$
#425000
b110 ,
1$
